<mxfile host="app.diagrams.net" modified="2023-08-25T02:32:46.990Z" agent="Mozilla/5.0 (Windows NT 10.0; Win64; x64) AppleWebKit/537.36 (KHTML, like Gecko) Chrome/116.0.0.0 Safari/537.36" version="21.6.9" etag="zOCg_DybcL3NeLJyHqYb" type="gitlab">
  <diagram name="第 1 页" id="-BARHVakqsQBhFfcseMQ">
    <mxGraphModel>
      <root>
        <mxCell id="0" />
        <mxCell id="1" parent="0" />
      </root>
    </mxGraphModel>
  </diagram>
</mxfile>
